%YAML 1.1
%TAG !u! tag:unity3d.com,2011:
--- !u!114 &11400000
MonoBehaviour:
  m_ObjectHideFlags: 0
  m_CorrespondingSourceObject: {fileID: 0}
  m_PrefabInstance: {fileID: 0}
  m_PrefabAsset: {fileID: 0}
  m_GameObject: {fileID: 0}
  m_Enabled: 1
  m_EditorHideFlags: 0
  m_Script: {fileID: 11500000, guid: fe92b85d8ed796c479e87ff0c8622d11, type: 3}
  m_Name: Sword
  m_EditorClassIdentifier: 
  _itemID: 3
  _itemName: Sword
  _itemSprite: {fileID: 21300000, guid: 00c37052ba11fa6428df2e37fefa5c33, type: 3}
